Stats 506 PS6
…
# Filter fielding table
fielding <- fielding %>%
  filter(!is.na(PO), !is.na(A), !is.na(InnOuts), InnOuts > 0)

# Calculate RF
fielding$rf <- 3 * ((fielding$PO + fielding$A) / fielding$InnOuts)

# Calculate average RF per team
avg_rf_team <- fielding %>% 
  group_by(teamID) %>% 
  summarise(avg_rf = mean(rf, na.rm = TRUE))

avg_rf_team

# A tibble: 140 × 2
   teamID avg_rf
   <chr>   <dbl>
 1 ALT     0.387
 2 ANA     0.415
 3 ARI     0.366
 4 ATL     0.388
 5 BAL     0.393
 6 BFN     0.451
 7 BFP     0.464
 8 BL1     0.442
 9 BL2     0.401
10 BL3     0.444
# ℹ 130 more rows
…
# Find bootstrap results of average rf
boot_results <- boot(fielding, 1000)

# Find SDs for the results
no_parallel_sd <- boot_results %>% 
  group_by(teamID) %>% 
  summarise(sd_rf = sd(avg_rf, na.rm = TRUE))

# Combine average and SD into a table
table <- avg_rf_team %>% 
  left_join(no_parallel_sd, by = "teamID")

table

# A tibble: 140 × 3
   teamID avg_rf   sd_rf
   <chr>   <dbl>   <dbl>
 1 ALT     0.387 0.0513 
 2 ANA     0.415 0.0160 
 3 ARI     0.366 0.00880
 4 ATL     0.388 0.00609
 5 BAL     0.393 0.00554
 6 BFN     0.451 0.0204 
 7 BFP     0.464 0.0524 
 8 BL1     0.442 0.0288 
 9 BL2     0.401 0.0162 
10 BL3     0.444 0.0398 
# ℹ 130 more rows
…
# Find bootstrap results of average rf
boot_results <- parallel_boot(fielding, 1000)

# Find SDs for the results
parallel_sd <- boot_results %>% 
  group_by(teamID) %>% 
  summarise(sd_rf = sd(avg_rf, na.rm = TRUE))

# Combine average and SD into a table
table <- avg_rf_team %>% 
  left_join(parallel_sd, by = "teamID")

table

# A tibble: 140 × 3
   teamID avg_rf   sd_rf
   <chr>   <dbl>   <dbl>
 1 ALT     0.387 0.0505 
 2 ANA     0.415 0.0157 
 3 ARI     0.366 0.00902
 4 ATL     0.388 0.00613
 5 BAL     0.393 0.00557
 6 BFN     0.451 0.0206 
 7 BFP     0.464 0.0510 
 8 BL1     0.442 0.0282 
 9 BL2     0.401 0.0164 
10 BL3     0.444 0.0401 
# ℹ 130 more rows
…
